Data generation—CR25 orders • dpjr
…
albumlist <- read_csv(dpjr::dpjr_data("cr25/cr25_538.csv"))

## Rows: 25 Columns: 6
## ── Column specification ────────────────────────────────────────────────────────
## Delimiter: ","
## chr (2): artist, album
## dbl (4): rank, year, pct_plays, price
## 
## ℹ Use `spec()` to retrieve the full column specification for this data.
## ℹ Specify the column types or set `show_col_types = FALSE` to quiet this message.

albumlist

## # A tibble: 25 × 6
##     rank artist                        album               year pct_plays price
##    <dbl> <chr>                         <chr>              <dbl>     <dbl> <dbl>
##  1     1 Led Zeppelin                  IV (untitled)       1971       4.1  7.98
##  2     2 Van Halen                     1984                1984       3.3  9.98
##  3     3 The Rolling Stones            Sticky Fingers      1971       3    7.98
##  4     4 Pink Floyd                    The Wall            1979       2.8 15.0 
##  5     5 Tom Petty & The Heartbreakers Hard Promises       1981       2.6  8.98
##  6     6 AC/DC                         Back in Black       1980       2.3  8.98
##  7     7 Aerosmith                     Toys in the Attic   1975       2.2  7.98
##  8     8 ZZ Top                        Eliminator          1983       1.9  9.98
##  9     9 The Beatles                   Abbey Road          1969       1.9  7.98
## 10    10 Queen                         Night at the Opera  1975       1.8  7.98
## # … with 15 more rows
…
storelist <- read_csv(dpjr::dpjr_data("cr25/cr25_storelist.csv"))

## Rows: 45 Columns: 4
## ── Column specification ────────────────────────────────────────────────────────
## Delimiter: ","
## chr  (3): chain, region, store.id
## date (1): open_date
## 
## ℹ Use `spec()` to retrieve the full column specification for this data.
## ℹ Specify the column types or set `show_col_types = FALSE` to quiet this message.

storelist

## # A tibble: 45 × 4
##    chain               region open_date  store.id
##    <chr>               <chr>  <date>     <chr>   
##  1 A&A Records         east   2019-01-01 X001    
##  2 A&A Records         east   2019-01-01 X002    
##  3 A&A Records         east   2019-01-01 X003    
##  4 A&A Records         east   2019-01-01 X004    
##  5 A&A Records         east   2019-01-01 X005    
##  6 Kelly's Stereo Mart east   2019-01-01 X017    
##  7 Kelly's Stereo Mart east   2019-01-01 X018    
##  8 Sam the Record Man  east   2019-01-01 X028    
##  9 Sam the Record Man  east   2019-01-01 X029    
## 10 Sam the Record Man  east   2019-01-01 X030    
## # … with 35 more rows
…
